AppicationURL,user,password,user1,passwordold,password1,email
http://localhost/ActiveTime/index.html/,lnbast9,Laura123!, ,Laura123!, ,lnbasto96@ucatolica.edu.co
http://localhost/ActiveTime/index.html/,lnbast9,Laura123!,lnbast9, ,Casa123!,lnbasto96@ucatolica.edu.co
http://localhost/ActiveTime/index.html/,lnbast9,Laura123!,lnbast9,Casa123!, ,lnbasto96@ucatolica.edu.co
http://localhost/ActiveTime/index.html/,lnbast9,Laura123!,lnbast9,Laura456!,Laura123!,x
http://localhost/ActiveTime/index.html/,lnbast9,Laura123!,lnbast9,Casa456!,Laura456!,lnbasto96@ucatolica.edu.co
http://localhost/ActiveTime/index.html/,lnbast9,Laura123!,lnbast85,Laura123!,Laura456!,lnbasto96@ucatolica.edu.co
http://localhost/ActiveTime/index.html/,lnbast9,Laura123!,lnbast9,Laura456!,Laura123!,lnbasto96@ucatolica.edu.co
http://localhost/ActiveTime/index.html/,lnbast9,Laura123!,lnbast9,Laura123!,Casa123!,lnbasto96@ucatolica
http://localhost/ActiveTime/index.html/,lnbast9,Laura123!, , , 
http://localhost/ActiveTime/index.html/,lnbast9,Laura123!,lnbast9,Laura456!,Laura123!,lnbasto96@ucatolica.edu.co
